[
    {
      "hashTypeId": 0,
      "description": "MD5",
      "isSalted": 0,
      "isSlowHash": 0
    },
    {
      "hashTypeId": 10,
      "description": "md5($pass.$salt)",
      "isSalted": 1,
      "isSlowHash": 0
    },
    {
      "hashTypeId": 11,
      "description": "Joomla < 2.5.18",
      "isSalted": 1,
      "isSlowHash": 0
    },
    {
      "hashTypeId": 12,
      "description": "PostgreSQL",
      "isSalted": 1,
      "isSlowHash": 0
    },
    {
      "hashTypeId": 20,
      "description": "md5($salt.$pass)",
      "isSalted": 1,
      "isSlowHash": 0
    },
    {
      "hashTypeId": 21,
      "description": "osCommerce, xt:Commerce",
      "isSalted": 1,
      "isSlowHash": 0
    },
    {
      "hashTypeId": 22,
      "description": "Juniper Netscreen/SSG (ScreenOS)",
      "isSalted": 1,
      "isSlowHash": 0
    },
    {
      "hashTypeId": 23,
      "description": "Skype",
      "isSalted": 1,
      "isSlowHash": 0
    },
    {
      "hashTypeId": 24,
      "description": "SolarWinds Serv-U",
      "isSalted": 0,
      "isSlowHash": 0
    },
    {
      "hashTypeId": 30,
      "description": "md5(unicode($pass).$salt)",
      "isSalted": 1,
      "isSlowHash": 0
    },
    {
      "hashTypeId": 40,
      "description": "md5($salt.unicode($pass))",
      "isSalted": 1,
      "isSlowHash": 0
    },
    {
      "hashTypeId": 50,
      "description": "HMAC-MD5 (key = $pass)",
      "isSalted": 1,
      "isSlowHash": 0
    },
    {
      "hashTypeId": 60,
      "description": "HMAC-MD5 (key = $salt)",
      "isSalted": 1,
      "isSlowHash": 0
    },
    {
      "hashTypeId": 100,
      "description": "SHA1",
      "isSalted": 0,
      "isSlowHash": 0
    },
    {
      "hashTypeId": 101,
      "description": "nsldap, SHA-1(Base64), Netscape LDAP SHA",
      "isSalted": 0,
      "isSlowHash": 0
    },
    {
      "hashTypeId": 110,
      "description": "sha1($pass.$salt)",
      "isSalted": 1,
      "isSlowHash": 0
    },
    {
      "hashTypeId": 111,
      "description": "nsldaps, SSHA-1(Base64), Netscape LDAP SSHA",
      "isSalted": 0,
      "isSlowHash": 0
    },
    {
      "hashTypeId": 112,
      "description": "Oracle S: Type (Oracle 11+)",
      "isSalted": 1,
      "isSlowHash": 0
    },
    {
      "hashTypeId": 120,
      "description": "sha1($salt.$pass)",
      "isSalted": 1,
      "isSlowHash": 0
    },
    {
      "hashTypeId": 121,
      "description": "SMF >= v1.1",
      "isSalted": 1,
      "isSlowHash": 0
    },
    {
      "hashTypeId": 122,
      "description": "OS X v10.4, v10.5, v10.6",
      "isSalted": 0,
      "isSlowHash": 0
    },
    {
      "hashTypeId": 124,
      "description": "Django (SHA-1)",
      "isSalted": 0,
      "isSlowHash": 0
    },
    {
      "hashTypeId": 125,
      "description": "ArubaOS",
      "isSalted": 0,
      "isSlowHash": 0
    },
    {
      "hashTypeId": 130,
      "description": "sha1(unicode($pass).$salt)",
      "isSalted": 1,
      "isSlowHash": 0
    },
    {
      "hashTypeId": 131,
      "description": "MSSQL(2000)",
      "isSalted": 0,
      "isSlowHash": 0
    },
    {
      "hashTypeId": 132,
      "description": "MSSQL(2005)",
      "isSalted": 0,
      "isSlowHash": 0
    },
    {
      "hashTypeId": 133,
      "description": "PeopleSoft",
      "isSalted": 0,
      "isSlowHash": 0
    },
    {
      "hashTypeId": 140,
      "description": "sha1($salt.unicode($pass))",
      "isSalted": 1,
      "isSlowHash": 0
    },
    {
      "hashTypeId": 141,
      "description": "EPiServer 6.x < v4",
      "isSalted": 0,
      "isSlowHash": 0
    },
    {
      "hashTypeId": 150,
      "description": "HMAC-SHA1 (key = $pass)",
      "isSalted": 1,
      "isSlowHash": 0
    },
    {
      "hashTypeId": 160,
      "description": "HMAC-SHA1 (key = $salt)",
      "isSalted": 1,
      "isSlowHash": 0
    },
    {
      "hashTypeId": 200,
      "description": "MySQL323",
      "isSalted": 0,
      "isSlowHash": 0
    },
    {
      "hashTypeId": 300,
      "description": "MySQL4.1/MySQL5+",
      "isSalted": 0,
      "isSlowHash": 0
    },
    {
      "hashTypeId": 400,
      "description": "phpass, MD5(Wordpress), MD5(Joomla), MD5(phpBB3)",
      "isSalted": 0,
      "isSlowHash": 0
    },
    {
      "hashTypeId": 500,
      "description": "md5crypt, MD5(Unix), FreeBSD MD5, Cisco-IOS MD5 2",
      "isSalted": 0,
      "isSlowHash": 0
    },
    {
      "hashTypeId": 501,
      "description": "Juniper IVE",
      "isSalted": 0,
      "isSlowHash": 0
    },
    {
      "hashTypeId": 600,
      "description": "BLAKE2b-512",
      "isSalted": 0,
      "isSlowHash": 0
    },
    {
      "hashTypeId": 900,
      "description": "MD4",
      "isSalted": 0,
      "isSlowHash": 0
    },
    {
      "hashTypeId": 1000,
      "description": "NTLM",
      "isSalted": 0,
      "isSlowHash": 0
    },
    {
      "hashTypeId": 1100,
      "description": "Domain Cached Credentials (DCC), MS Cache",
      "isSalted": 1,
      "isSlowHash": 0
    },
    {
      "hashTypeId": 1300,
      "description": "SHA-224",
      "isSalted": 0,
      "isSlowHash": 0
    },
    {
      "hashTypeId": 1400,
      "description": "SHA256",
      "isSalted": 0,
      "isSlowHash": 0
    },
    {
      "hashTypeId": 1410,
      "description": "sha256($pass.$salt)",
      "isSalted": 1,
      "isSlowHash": 0
    },
    {
      "hashTypeId": 1411,
      "description": "SSHA-256(Base64), LDAP {SSHA256}",
      "isSalted": 0,
      "isSlowHash": 0
    },
    {
      "hashTypeId": 1420,
      "description": "sha256($salt.$pass)",
      "isSalted": 1,
      "isSlowHash": 0
    },
    {
      "hashTypeId": 1421,
      "description": "hMailServer",
      "isSalted": 0,
      "isSlowHash": 0
    },
    {
      "hashTypeId": 1430,
      "description": "sha256(unicode($pass).$salt)",
      "isSalted": 1,
      "isSlowHash": 0
    },
    {
      "hashTypeId": 1440,
      "description": "sha256($salt.unicode($pass))",
      "isSalted": 1,
      "isSlowHash": 0
    },
    {
      "hashTypeId": 1441,
      "description": "EPiServer 6.x >= v4",
      "isSalted": 0,
      "isSlowHash": 0
    },
    {
      "hashTypeId": 1450,
      "description": "HMAC-SHA256 (key = $pass)",
      "isSalted": 1,
      "isSlowHash": 0
    },
    {
      "hashTypeId": 1460,
      "description": "HMAC-SHA256 (key = $salt)",
      "isSalted": 1,
      "isSlowHash": 0
    },
    {
      "hashTypeId": 1500,
      "description": "descrypt, DES(Unix), Traditional DES",
      "isSalted": 0,
      "isSlowHash": 0
    },
    {
      "hashTypeId": 1600,
      "description": "md5apr1, MD5(APR), Apache MD5",
      "isSalted": 0,
      "isSlowHash": 0
    },
    {
      "hashTypeId": 1700,
      "description": "SHA512",
      "isSalted": 0,
      "isSlowHash": 0
    },
    {
      "hashTypeId": 1710,
      "description": "sha512($pass.$salt)",
      "isSalted": 1,
      "isSlowHash": 0
    },
    {
      "hashTypeId": 1711,
      "description": "SSHA-512(Base64), LDAP {SSHA512}",
      "isSalted": 0,
      "isSlowHash": 0
    },
    {
      "hashTypeId": 1720,
      "description": "sha512($salt.$pass)",
      "isSalted": 1,
      "isSlowHash": 0
    },
    {
      "hashTypeId": 1722,
      "description": "OS X v10.7",
      "isSalted": 0,
      "isSlowHash": 0
    },
    {
      "hashTypeId": 1730,
      "description": "sha512(unicode($pass).$salt)",
      "isSalted": 1,
      "isSlowHash": 0
    },
    {
      "hashTypeId": 1731,
      "description": "MSSQL(2012), MSSQL(2014)",
      "isSalted": 0,
      "isSlowHash": 0
    },
    {
      "hashTypeId": 1740,
      "description": "sha512($salt.unicode($pass))",
      "isSalted": 1,
      "isSlowHash": 0
    },
    {
      "hashTypeId": 1750,
      "description": "HMAC-SHA512 (key = $pass)",
      "isSalted": 1,
      "isSlowHash": 0
    },
    {
      "hashTypeId": 1760,
      "description": "HMAC-SHA512 (key = $salt)",
      "isSalted": 1,
      "isSlowHash": 0
    },
    {
      "hashTypeId": 1800,
      "description": "sha512crypt, SHA512(Unix)",
      "isSalted": 0,
      "isSlowHash": 0
    },
    {
      "hashTypeId": 2000,
      "description": "STDOUT",
      "isSalted": 0,
      "isSlowHash": 0
    },
    {
      "hashTypeId": 2100,
      "description": "Domain Cached Credentials 2 (DCC2), MS Cache",
      "isSalted": 0,
      "isSlowHash": 1
    },
    {
      "hashTypeId": 2400,
      "description": "Cisco-PIX MD5",
      "isSalted": 0,
      "isSlowHash": 0
    },
    {
      "hashTypeId": 2410,
      "description": "Cisco-ASA MD5",
      "isSalted": 1,
      "isSlowHash": 0
    },
    {
      "hashTypeId": 2500,
      "description": "WPA/WPA2",
      "isSalted": 0,
      "isSlowHash": 1
    },
    {
      "hashTypeId": 2501,
      "description": "WPA-EAPOL-PMK",
      "isSalted": 0,
      "isSlowHash": 1
    },
    {
      "hashTypeId": 2600,
      "description": "md5(md5($pass))",
      "isSalted": 0,
      "isSlowHash": 0
    },
    {
      "hashTypeId": 2611,
      "description": "vBulletin < v3.8.5",
      "isSalted": 1,
      "isSlowHash": 0
    },
    {
      "hashTypeId": 2612,
      "description": "PHPS",
      "isSalted": 0,
      "isSlowHash": 0
    },
    {
      "hashTypeId": 2711,
      "description": "vBulletin >= v3.8.5",
      "isSalted": 1,
      "isSlowHash": 0
    },
    {
      "hashTypeId": 2811,
      "description": "IPB2+, MyBB1.2+",
      "isSalted": 1,
      "isSlowHash": 0
    },
    {
      "hashTypeId": 3000,
      "description": "LM",
      "isSalted": 0,
      "isSlowHash": 0
    },
    {
      "hashTypeId": 3100,
      "description": "Oracle H: Type (Oracle 7+), DES(Oracle)",
      "isSalted": 1,
      "isSlowHash": 0
    },
    {
      "hashTypeId": 3200,
      "description": "bcrypt, Blowfish(OpenBSD)",
      "isSalted": 0,
      "isSlowHash": 0
    },
    {
      "hashTypeId": 3710,
      "description": "md5($salt.md5($pass))",
      "isSalted": 1,
      "isSlowHash": 0
    },
    {
      "hashTypeId": 3711,
      "description": "Mediawiki B type",
      "isSalted": 0,
      "isSlowHash": 0
    },
    {
      "hashTypeId": 3800,
      "description": "md5($salt.$pass.$salt)",
      "isSalted": 1,
      "isSlowHash": 0
    },
    {
      "hashTypeId": 3910,
      "description": "md5(md5($pass).md5($salt))",
      "isSalted": 1,
      "isSlowHash": 0
    },
    {
      "hashTypeId": 4010,
      "description": "md5($salt.md5($salt.$pass))",
      "isSalted": 1,
      "isSlowHash": 0
    },
    {
      "hashTypeId": 4110,
      "description": "md5($salt.md5($pass.$salt))",
      "isSalted": 1,
      "isSlowHash": 0
    },
    {
      "hashTypeId": 4300,
      "description": "md5(strtoupper(md5($pass)))",
      "isSalted": 0,
      "isSlowHash": 0
    },
    {
      "hashTypeId": 4400,
      "description": "md5(sha1($pass))",
      "isSalted": 0,
      "isSlowHash": 0
    },
    {
      "hashTypeId": 4500,
      "description": "sha1(sha1($pass))",
      "isSalted": 0,
      "isSlowHash": 0
    },
    {
      "hashTypeId": 4510,
      "description": "sha1(sha1($pass).$salt)",
      "isSalted": 1,
      "isSlowHash": 0
    },
    {
      "hashTypeId": 4520,
      "description": "sha1($salt.sha1($pass))",
      "isSalted": 1,
      "isSlowHash": 0
    },
    {
      "hashTypeId": 4521,
      "description": "Redmine Project Management Web App",
      "isSalted": 0,
      "isSlowHash": 0
    },
    {
      "hashTypeId": 4522,
      "description": "PunBB",
      "isSalted": 0,
      "isSlowHash": 0
    },
    {
      "hashTypeId": 4700,
      "description": "sha1(md5($pass))",
      "isSalted": 0,
      "isSlowHash": 0
    },
    {
      "hashTypeId": 4710,
      "description": "sha1(md5($pass).$salt)",
      "isSalted": 1,
      "isSlowHash": 0
    },
    {
      "hashTypeId": 4711,
      "description": "Huawei sha1(md5($pass).$salt)",
      "isSalted": 1,
      "isSlowHash": 0
    },
    {
      "hashTypeId": 4800,
      "description": "MD5(Chap), iSCSI CHAP authentication",
      "isSalted": 1,
      "isSlowHash": 0
    },
    {
      "hashTypeId": 4900,
      "description": "sha1($salt.$pass.$salt)",
      "isSalted": 1,
      "isSlowHash": 0
    },
    {
      "hashTypeId": 5000,
      "description": "SHA-3(Keccak)",
      "isSalted": 0,
      "isSlowHash": 0
    },
    {
      "hashTypeId": 5100,
      "description": "Half MD5",
      "isSalted": 0,
      "isSlowHash": 0
    },
    {
      "hashTypeId": 5200,
      "description": "Password Safe v3",
      "isSalted": 0,
      "isSlowHash": 1
    },
    {
      "hashTypeId": 5300,
      "description": "IKE-PSK MD5",
      "isSalted": 0,
      "isSlowHash": 0
    },
    {
      "hashTypeId": 5400,
      "description": "IKE-PSK SHA1",
      "isSalted": 0,
      "isSlowHash": 0
    },
    {
      "hashTypeId": 5500,
      "description": "NetNTLMv1-VANILLA / NetNTLMv1+ESS",
      "isSalted": 0,
      "isSlowHash": 0
    },
    {
      "hashTypeId": 5600,
      "description": "NetNTLMv2",
      "isSalted": 0,
      "isSlowHash": 0
    },
    {
      "hashTypeId": 5700,
      "description": "Cisco-IOS SHA256",
      "isSalted": 0,
      "isSlowHash": 0
    },
    {
      "hashTypeId": 5800,
      "description": "Samsung Android Password/PIN",
      "isSalted": 1,
      "isSlowHash": 0
    },
    {
      "hashTypeId": 6000,
      "description": "RipeMD160",
      "isSalted": 0,
      "isSlowHash": 0
    },
    {
      "hashTypeId": 6100,
      "description": "Whirlpool",
      "isSalted": 0,
      "isSlowHash": 0
    },
    {
      "hashTypeId": 6211,
      "description": "TrueCrypt 5.0+ PBKDF2-HMAC-RipeMD160 + AES/Serpent/Twofish",
      "isSalted": 0,
      "isSlowHash": 1
    },
    {
      "hashTypeId": 6212,
      "description": "TrueCrypt 5.0+ PBKDF2-HMAC-RipeMD160 + AES-Twofish/Serpent-AES/Twofish-Serpent",
      "isSalted": 0,
      "isSlowHash": 1
    },
    {
      "hashTypeId": 6213,
      "description": "TrueCrypt 5.0+ PBKDF2-HMAC-RipeMD160 + AES-Twofish-Serpent/Serpent-Twofish-AES",
      "isSalted": 0,
      "isSlowHash": 1
    },
    {
      "hashTypeId": 6221,
      "description": "TrueCrypt 5.0+ SHA512 + AES/Serpent/Twofish",
      "isSalted": 0,
      "isSlowHash": 1
    },
    {
      "hashTypeId": 6222,
      "description": "TrueCrypt 5.0+ SHA512 + AES-Twofish/Serpent-AES/Twofish-Serpent",
      "isSalted": 0,
      "isSlowHash": 1
    },
    {
      "hashTypeId": 6223,
      "description": "TrueCrypt 5.0+ SHA512 + AES-Twofish-Serpent/Serpent-Twofish-AES",
      "isSalted": 0,
      "isSlowHash": 1
    },
    {
      "hashTypeId": 6231,
      "description": "TrueCrypt 5.0+ Whirlpool + AES/Serpent/Twofish",
      "isSalted": 0,
      "isSlowHash": 1
    },
    {
      "hashTypeId": 6232,
      "description": "TrueCrypt 5.0+ Whirlpool + AES-Twofish/Serpent-AES/Twofish-Serpent",
      "isSalted": 0,
      "isSlowHash": 1
    },
    {
      "hashTypeId": 6233,
      "description": "TrueCrypt 5.0+ Whirlpool + AES-Twofish-Serpent/Serpent-Twofish-AES",
      "isSalted": 0,
      "isSlowHash": 1
    },
    {
      "hashTypeId": 6241,
      "description": "TrueCrypt 5.0+ PBKDF2-HMAC-RipeMD160 + AES/Serpent/Twofish + boot",
      "isSalted": 0,
      "isSlowHash": 1
    },
    {
      "hashTypeId": 6242,
      "description": "TrueCrypt 5.0+ PBKDF2-HMAC-RipeMD160 + AES-Twofish/Serpent-AES/Twofish-Serpent + boot",
      "isSalted": 0,
      "isSlowHash": 1
    },
    {
      "hashTypeId": 6243,
      "description": "TrueCrypt 5.0+ PBKDF2-HMAC-RipeMD160 + AES-Twofish-Serpent/Serpent-Twofish-AES + boot",
      "isSalted": 0,
      "isSlowHash": 1
    },
    {
      "hashTypeId": 6300,
      "description": "AIX {smd5}",
      "isSalted": 0,
      "isSlowHash": 0
    },
    {
      "hashTypeId": 6400,
      "description": "AIX {ssha256}",
      "isSalted": 0,
      "isSlowHash": 1
    },
    {
      "hashTypeId": 6500,
      "description": "AIX {ssha512}",
      "isSalted": 0,
      "isSlowHash": 1
    },
    {
      "hashTypeId": 6600,
      "description": "1Password, Agile Keychain",
      "isSalted": 0,
      "isSlowHash": 1
    },
    {
      "hashTypeId": 6700,
      "description": "AIX {ssha1}",
      "isSalted": 0,
      "isSlowHash": 1
    },
    {
      "hashTypeId": 6800,
      "description": "Lastpass",
      "isSalted": 1,
      "isSlowHash": 1
    },
    {
      "hashTypeId": 6900,
      "description": "GOST R 34.11-94",
      "isSalted": 0,
      "isSlowHash": 0
    },
    {
      "hashTypeId": 7000,
      "description": "Fortigate (FortiOS)",
      "isSalted": 0,
      "isSlowHash": 0
    },
    {
      "hashTypeId": 7100,
      "description": "OS X v10.8 / v10.9",
      "isSalted": 0,
      "isSlowHash": 1
    },
    {
      "hashTypeId": 7200,
      "description": "GRUB 2",
      "isSalted": 0,
      "isSlowHash": 1
    },
    {
      "hashTypeId": 7300,
      "description": "IPMI2 RAKP HMAC-SHA1",
      "isSalted": 1,
      "isSlowHash": 0
    },
    {
      "hashTypeId": 7400,
      "description": "sha256crypt, SHA256(Unix)",
      "isSalted": 0,
      "isSlowHash": 0
    },
    {
      "hashTypeId": 7401,
      "description": "MySQL $A$ (sha256crypt)",
      "isSalted": 0,
      "isSlowHash": 0
    },
    {
      "hashTypeId": 7500,
      "description": "Kerberos 5 AS-REQ Pre-Auth",
      "isSalted": 0,
      "isSlowHash": 0
    },
    {
      "hashTypeId": 7700,
      "description": "SAP CODVN B (BCODE)",
      "isSalted": 0,
      "isSlowHash": 0
    },
    {
      "hashTypeId": 7701,
      "description": "SAP CODVN B (BCODE) from RFC_READ_TABLE",
      "isSalted": 0,
      "isSlowHash": 0
    },
    {
      "hashTypeId": 7800,
      "description": "SAP CODVN F/G (PASSCODE)",
      "isSalted": 0,
      "isSlowHash": 0
    },
    {
      "hashTypeId": 7801,
      "description": "SAP CODVN F/G (PASSCODE) from RFC_READ_TABLE",
      "isSalted": 0,
      "isSlowHash": 0
    },
    {
      "hashTypeId": 7900,
      "description": "Drupal7",
      "isSalted": 0,
      "isSlowHash": 0
    },
    {
      "hashTypeId": 8000,
      "description": "Sybase ASE",
      "isSalted": 0,
      "isSlowHash": 0
    },
    {
      "hashTypeId": 8100,
      "description": "Citrix Netscaler",
      "isSalted": 0,
      "isSlowHash": 0
    },
    {
      "hashTypeId": 8200,
      "description": "1Password, Cloud Keychain",
      "isSalted": 0,
      "isSlowHash": 1
    },
    {
      "hashTypeId": 8300,
      "description": "DNSSEC (NSEC3)",
      "isSalted": 1,
      "isSlowHash": 0
    },
    {
      "hashTypeId": 8400,
      "description": "WBB3, Woltlab Burning Board 3",
      "isSalted": 1,
      "isSlowHash": 0
    },
    {
      "hashTypeId": 8500,
      "description": "RACF",
      "isSalted": 0,
      "isSlowHash": 0
    },
    {
      "hashTypeId": 8600,
      "description": "Lotus Notes/Domino 5",
      "isSalted": 0,
      "isSlowHash": 0
    },
    {
      "hashTypeId": 8700,
      "description": "Lotus Notes/Domino 6",
      "isSalted": 0,
      "isSlowHash": 0
    },
    {
      "hashTypeId": 8800,
      "description": "Android FDE <= 4.3",
      "isSalted": 0,
      "isSlowHash": 1
    },
    {
      "hashTypeId": 8900,
      "description": "scrypt",
      "isSalted": 1,
      "isSlowHash": 0
    },
    {
      "hashTypeId": 9000,
      "description": "Password Safe v2",
      "isSalted": 0,
      "isSlowHash": 0
    },
    {
      "hashTypeId": 9100,
      "description": "Lotus Notes/Domino",
      "isSalted": 0,
      "isSlowHash": 1
    },
    {
      "hashTypeId": 9200,
      "description": "Cisco $8$",
      "isSalted": 0,
      "isSlowHash": 1
    },
    {
      "hashTypeId": 9300,
      "description": "Cisco $9$",
      "isSalted": 0,
      "isSlowHash": 0
    },
    {
      "hashTypeId": 9400,
      "description": "Office 2007",
      "isSalted": 0,
      "isSlowHash": 1
    },
    {
      "hashTypeId": 9500,
      "description": "Office 2010",
      "isSalted": 0,
      "isSlowHash": 1
    },
    {
      "hashTypeId": 9600,
      "description": "Office 2013",
      "isSalted": 0,
      "isSlowHash": 1
    },
    {
      "hashTypeId": 9700,
      "description": "MS Office ⇐ 2003 MD5 + RC4, oldoffice$0, oldoffice$1",
      "isSalted": 0,
      "isSlowHash": 0
    },
    {
      "hashTypeId": 9710,
      "description": "MS Office <= 2003 $0/$1, MD5 + RC4, collider #1",
      "isSalted": 0,
      "isSlowHash": 0
    },
    {
      "hashTypeId": 9720,
      "description": "MS Office <= 2003 $0/$1, MD5 + RC4, collider #2",
      "isSalted": 0,
      "isSlowHash": 0
    },
    {
      "hashTypeId": 9800,
      "description": "MS Office ⇐ 2003 SHA1 + RC4, oldoffice$3, oldoffice$4",
      "isSalted": 0,
      "isSlowHash": 0
    },
    {
      "hashTypeId": 9810,
      "description": "MS Office <= 2003 $3, SHA1 + RC4, collider #1",
      "isSalted": 0,
      "isSlowHash": 0
    },
    {
      "hashTypeId": 9820,
      "description": "MS Office <= 2003 $3, SHA1 + RC4, collider #2",
      "isSalted": 0,
      "isSlowHash": 0
    },
    {
      "hashTypeId": 9900,
      "description": "Radmin2",
      "isSalted": 0,
      "isSlowHash": 0
    },
    {
      "hashTypeId": 10000,
      "description": "Django (PBKDF2-SHA256)",
      "isSalted": 0,
      "isSlowHash": 1
    },
    {
      "hashTypeId": 10100,
      "description": "SipHash",
      "isSalted": 1,
      "isSlowHash": 0
    },
    {
      "hashTypeId": 10200,
      "description": "Cram MD5",
      "isSalted": 0,
      "isSlowHash": 0
    },
    {
      "hashTypeId": 10300,
      "description": "SAP CODVN H (PWDSALTEDHASH) iSSHA-1",
      "isSalted": 0,
      "isSlowHash": 0
    },
    {
      "hashTypeId": 10400,
      "description": "PDF 1.1 - 1.3 (Acrobat 2 - 4)",
      "isSalted": 0,
      "isSlowHash": 0
    },
    {
      "hashTypeId": 10410,
      "description": "PDF 1.1 - 1.3 (Acrobat 2 - 4), collider #1",
      "isSalted": 0,
      "isSlowHash": 0
    },
    {
      "hashTypeId": 10420,
      "description": "PDF 1.1 - 1.3 (Acrobat 2 - 4), collider #2",
      "isSalted": 0,
      "isSlowHash": 0
    },
    {
      "hashTypeId": 10500,
      "description": "PDF 1.4 - 1.6 (Acrobat 5 - 8)",
      "isSalted": 0,
      "isSlowHash": 0
    },
    {
      "hashTypeId": 10600,
      "description": "PDF 1.7 Level 3 (Acrobat 9)",
      "isSalted": 0,
      "isSlowHash": 0
    },
    {
      "hashTypeId": 10700,
      "description": "PDF 1.7 Level 8 (Acrobat 10 - 11)",
      "isSalted": 0,
      "isSlowHash": 0
    },
    {
      "hashTypeId": 10800,
      "description": "SHA384",
      "isSalted": 0,
      "isSlowHash": 0
    },
    {
      "hashTypeId": 10900,
      "description": "PBKDF2-HMAC-SHA256",
      "isSalted": 0,
      "isSlowHash": 1
    },
    {
      "hashTypeId": 11000,
      "description": "PrestaShop",
      "isSalted": 1,
      "isSlowHash": 0
    },
    {
      "hashTypeId": 11100,
      "description": "PostgreSQL Challenge-Response Authentication (MD5)",
      "isSalted": 0,
      "isSlowHash": 0
    },
    {
      "hashTypeId": 11200,
      "description": "MySQL Challenge-Response Authentication (SHA1)",
      "isSalted": 0,
      "isSlowHash": 0
    },
    {
      "hashTypeId": 11300,
      "description": "Bitcoin/Litecoin wallet.dat",
      "isSalted": 0,
      "isSlowHash": 1
    },
    {
      "hashTypeId": 11400,
      "description": "SIP digest authentication (MD5)",
      "isSalted": 0,
      "isSlowHash": 0
    },
    {
      "hashTypeId": 11500,
      "description": "CRC32",
      "isSalted": 1,
      "isSlowHash": 0
    },
    {
      "hashTypeId": 11600,
      "description": "7-Zip",
      "isSalted": 0,
      "isSlowHash": 0
    },
    {
      "hashTypeId": 11700,
      "description": "GOST R 34.11-2012 (Streebog) 256-bit",
      "isSalted": 0,
      "isSlowHash": 0
    },
    {
      "hashTypeId": 11750,
      "description": "HMAC-Streebog-256 (key = $pass), big-endian",
      "isSalted": 0,
      "isSlowHash": 0
    },
    {
      "hashTypeId": 11760,
      "description": "HMAC-Streebog-256 (key = $salt), big-endian",
      "isSalted": 0,
      "isSlowHash": 0
    },
    {
      "hashTypeId": 11800,
      "description": "GOST R 34.11-2012 (Streebog) 512-bit",
      "isSalted": 0,
      "isSlowHash": 0
    },
    {
      "hashTypeId": 11850,
      "description": "HMAC-Streebog-512 (key = $pass), big-endian",
      "isSalted": 0,
      "isSlowHash": 0
    },
    {
      "hashTypeId": 11860,
      "description": "HMAC-Streebog-512 (key = $salt), big-endian",
      "isSalted": 0,
      "isSlowHash": 0
    },
    {
      "hashTypeId": 11900,
      "description": "PBKDF2-HMAC-MD5",
      "isSalted": 0,
      "isSlowHash": 1
    },
    {
      "hashTypeId": 12000,
      "description": "PBKDF2-HMAC-SHA1",
      "isSalted": 0,
      "isSlowHash": 1
    },
    {
      "hashTypeId": 12001,
      "description": "Atlassian (PBKDF2-HMAC-SHA1)",
      "isSalted": 0,
      "isSlowHash": 1
    },
    {
      "hashTypeId": 12100,
      "description": "PBKDF2-HMAC-SHA512",
      "isSalted": 0,
      "isSlowHash": 1
    },
    {
      "hashTypeId": 12200,
      "description": "eCryptfs",
      "isSalted": 0,
      "isSlowHash": 1
    },
    {
      "hashTypeId": 12300,
      "description": "Oracle T: Type (Oracle 12+)",
      "isSalted": 0,
      "isSlowHash": 1
    },
    {
      "hashTypeId": 12400,
      "description": "BSDiCrypt, Extended DES",
      "isSalted": 0,
      "isSlowHash": 0
    },
    {
      "hashTypeId": 12500,
      "description": "RAR3-hp",
      "isSalted": 0,
      "isSlowHash": 0
    },
    {
      "hashTypeId": 12600,
      "description": "ColdFusion 10+",
      "isSalted": 1,
      "isSlowHash": 0
    },
    {
      "hashTypeId": 12700,
      "description": "Blockchain, My Wallet",
      "isSalted": 0,
      "isSlowHash": 1
    },
    {
      "hashTypeId": 12800,
      "description": "MS-AzureSync PBKDF2-HMAC-SHA256",
      "isSalted": 0,
      "isSlowHash": 1
    },
    {
      "hashTypeId": 12900,
      "description": "Android FDE (Samsung DEK)",
      "isSalted": 0,
      "isSlowHash": 1
    },
    {
      "hashTypeId": 13000,
      "description": "RAR5",
      "isSalted": 0,
      "isSlowHash": 1
    },
    {
      "hashTypeId": 13100,
      "description": "Kerberos 5 TGS-REP etype 23",
      "isSalted": 0,
      "isSlowHash": 0
    },
    {
      "hashTypeId": 13200,
      "description": "AxCrypt",
      "isSalted": 0,
      "isSlowHash": 0
    },
    {
      "hashTypeId": 13300,
      "description": "AxCrypt in memory SHA1",
      "isSalted": 0,
      "isSlowHash": 0
    },
    {
      "hashTypeId": 13400,
      "description": "Keepass 1/2 AES/Twofish with/without keyfile",
      "isSalted": 0,
      "isSlowHash": 0
    },
    {
      "hashTypeId": 13500,
      "description": "PeopleSoft PS_TOKEN",
      "isSalted": 1,
      "isSlowHash": 0
    },
    {
      "hashTypeId": 13600,
      "description": "WinZip",
      "isSalted": 0,
      "isSlowHash": 1
    },
    {
      "hashTypeId": 13711,
      "description": "VeraCrypt PBKDF2-HMAC-RIPEMD160 + AES, Serpent, Twofish",
      "isSalted": 0,
      "isSlowHash": 1
    },
    {
      "hashTypeId": 13712,
      "description": "VeraCrypt PBKDF2-HMAC-RIPEMD160 + AES-Twofish, Serpent-AES, Twofish-Serpent",
      "isSalted": 0,
      "isSlowHash": 1
    },
    {
      "hashTypeId": 13713,
      "description": "VeraCrypt PBKDF2-HMAC-RIPEMD160 + Serpent-Twofish-AES",
      "isSalted": 0,
      "isSlowHash": 1
    },
    {
      "hashTypeId": 13721,
      "description": "VeraCrypt PBKDF2-HMAC-SHA512 + AES, Serpent, Twofish",
      "isSalted": 0,
      "isSlowHash": 1
    },
    {
      "hashTypeId": 13722,
      "description": "VeraCrypt PBKDF2-HMAC-SHA512 + AES-Twofish, Serpent-AES, Twofish-Serpent",
      "isSalted": 0,
      "isSlowHash": 1
    },
    {
      "hashTypeId": 13723,
      "description": "VeraCrypt PBKDF2-HMAC-SHA512 + Serpent-Twofish-AES",
      "isSalted": 0,
      "isSlowHash": 1
    },
    {
      "hashTypeId": 13731,
      "description": "VeraCrypt PBKDF2-HMAC-Whirlpool + AES, Serpent, Twofish",
      "isSalted": 0,
      "isSlowHash": 1
    },
    {
      "hashTypeId": 13732,
      "description": "VeraCrypt PBKDF2-HMAC-Whirlpool + AES-Twofish, Serpent-AES, Twofish-Serpent",
      "isSalted": 0,
      "isSlowHash": 1
    },
    {
      "hashTypeId": 13733,
      "description": "VeraCrypt PBKDF2-HMAC-Whirlpool + Serpent-Twofish-AES",
      "isSalted": 0,
      "isSlowHash": 1
    },
    {
      "hashTypeId": 13741,
      "description": "VeraCrypt PBKDF2-HMAC-RIPEMD160 + boot-mode + AES",
      "isSalted": 0,
      "isSlowHash": 1
    },
    {
      "hashTypeId": 13742,
      "description": "VeraCrypt PBKDF2-HMAC-RIPEMD160 + boot-mode + AES-Twofish",
      "isSalted": 0,
      "isSlowHash": 1
    },
    {
      "hashTypeId": 13743,
      "description": "VeraCrypt PBKDF2-HMAC-RIPEMD160 + boot-mode + AES-Twofish-Serpent",
      "isSalted": 0,
      "isSlowHash": 1
    },
    {
      "hashTypeId": 13751,
      "description": "VeraCrypt PBKDF2-HMAC-SHA256 + AES, Serpent, Twofish",
      "isSalted": 0,
      "isSlowHash": 1
    },
    {
      "hashTypeId": 13752,
      "description": "VeraCrypt PBKDF2-HMAC-SHA256 + AES-Twofish, Serpent-AES, Twofish-Serpent",
      "isSalted": 0,
      "isSlowHash": 1
    },
    {
      "hashTypeId": 13753,
      "description": "VeraCrypt PBKDF2-HMAC-SHA256 + Serpent-Twofish-AES",
      "isSalted": 0,
      "isSlowHash": 1
    },
    {
      "hashTypeId": 13771,
      "description": "VeraCrypt Streebog-512 + XTS 512 bit",
      "isSalted": 0,
      "isSlowHash": 1
    },
    {
      "hashTypeId": 13772,
      "description": "VeraCrypt Streebog-512 + XTS 1024 bit",
      "isSalted": 0,
      "isSlowHash": 1
    },
    {
      "hashTypeId": 13773,
      "description": "VeraCrypt Streebog-512 + XTS 1536 bit",
      "isSalted": 0,
      "isSlowHash": 1
    },
    {
      "hashTypeId": 13761,
      "description": "VeraCrypt PBKDF2-HMAC-SHA256 + boot-mode (PIM + AES | Twofish)",
      "isSalted": 0,
      "isSlowHash": 1
    },
    {
      "hashTypeId": 13762,
      "description": "VeraCrypt PBKDF2-HMAC-SHA256 + boot-mode + Serpent-AES",
      "isSalted": 0,
      "isSlowHash": 1
    },
    {
      "hashTypeId": 13763,
      "description": "VeraCrypt PBKDF2-HMAC-SHA256 + boot-mode + Serpent-Twofish-AES",
      "isSalted": 0,
      "isSlowHash": 1
    },
    {
      "hashTypeId": 13800,
      "description": "Windows 8+ phone PIN/Password",
      "isSalted": 1,
      "isSlowHash": 0
    },
    {
      "hashTypeId": 13900,
      "description": "OpenCart",
      "isSalted": 1,
      "isSlowHash": 0
    },
    {
      "hashTypeId": 14000,
      "description": "DES (PT = $salt, key = $pass)",
      "isSalted": 1,
      "isSlowHash": 0
    },
    {
      "hashTypeId": 14100,
      "description": "3DES (PT = $salt, key = $pass)",
      "isSalted": 1,
      "isSlowHash": 0
    },
    {
      "hashTypeId": 14400,
      "description": "sha1(CX)",
      "isSalted": 1,
      "isSlowHash": 0
    },
    {
      "hashTypeId": 14600,
      "description": "LUKS 10",
      "isSalted": 0,
      "isSlowHash": 1
    },
    {
      "hashTypeId": 14700,
      "description": "iTunes Backup < 10.0 11",
      "isSalted": 0,
      "isSlowHash": 1
    },
    {
      "hashTypeId": 14800,
      "description": "iTunes Backup >= 10.0 11",
      "isSalted": 0,
      "isSlowHash": 1
    },
    {
      "hashTypeId": 14900,
      "description": "Skip32 12",
      "isSalted": 1,
      "isSlowHash": 0
    },
    {
      "hashTypeId": 15000,
      "description": "FileZilla Server >= 0.9.55",
      "isSalted": 1,
      "isSlowHash": 0
    },
    {
      "hashTypeId": 15100,
      "description": "Juniper/NetBSD sha1crypt",
      "isSalted": 0,
      "isSlowHash": 1
    },
    {
      "hashTypeId": 15200,
      "description": "Blockchain, My Wallet, V2",
      "isSalted": 0,
      "isSlowHash": 0
    },
    {
      "hashTypeId": 15300,
      "description": "DPAPI masterkey file v1 and v2",
      "isSalted": 0,
      "isSlowHash": 1
    },
    {
      "hashTypeId": 15400,
      "description": "ChaCha20",
      "isSalted": 0,
      "isSlowHash": 0
    },
    {
      "hashTypeId": 15500,
      "description": "JKS Java Key Store Private Keys (SHA1)",
      "isSalted": 0,
      "isSlowHash": 0
    },
    {
      "hashTypeId": 15600,
      "description": "Ethereum Wallet, PBKDF2-HMAC-SHA256",
      "isSalted": 0,
      "isSlowHash": 1
    },
    {
      "hashTypeId": 15700,
      "description": "Ethereum Wallet, SCRYPT",
      "isSalted": 0,
      "isSlowHash": 0
    },
    {
      "hashTypeId": 15900,
      "description": "DPAPI master key file version 2 + Active Directory domain context",
      "isSalted": 0,
      "isSlowHash": 1
    },
    {
      "hashTypeId": 16000,
      "description": "Tripcode",
      "isSalted": 0,
      "isSlowHash": 0
    },
    {
      "hashTypeId": 16100,
      "description": "TACACS+",
      "isSalted": 0,
      "isSlowHash": 0
    },
    {
      "hashTypeId": 16200,
      "description": "Apple Secure Notes",
      "isSalted": 0,
      "isSlowHash": 1
    },
    {
      "hashTypeId": 16300,
      "description": "Ethereum Pre-Sale Wallet, PBKDF2-HMAC-SHA256",
      "isSalted": 0,
      "isSlowHash": 1
    },
    {
      "hashTypeId": 16400,
      "description": "CRAM-MD5 Dovecot",
      "isSalted": 0,
      "isSlowHash": 0
    },
    {
      "hashTypeId": 16500,
      "description": "JWT (JSON Web Token)",
      "isSalted": 0,
      "isSlowHash": 0
    },
    {
      "hashTypeId": 16600,
      "description": "Electrum Wallet (Salt-Type 1-3)",
      "isSalted": 0,
      "isSlowHash": 0
    },
    {
      "hashTypeId": 16700,
      "description": "FileVault 2",
      "isSalted": 0,
      "isSlowHash": 1
    },
    {
      "hashTypeId": 16800,
      "description": "WPA-PMKID-PBKDF2",
      "isSalted": 0,
      "isSlowHash": 1
    },
    {
      "hashTypeId": 16801,
      "description": "WPA-PMKID-PMK",
      "isSalted": 0,
      "isSlowHash": 1
    },
    {
      "hashTypeId": 16900,
      "description": "Ansible Vault",
      "isSalted": 0,
      "isSlowHash": 1
    },
    {
      "hashTypeId": 17200,
      "description": "PKZIP (Compressed)",
      "isSalted": 0,
      "isSlowHash": 0
    },
    {
      "hashTypeId": 17210,
      "description": "PKZIP (Uncompressed)",
      "isSalted": 0,
      "isSlowHash": 0
    },
    {
      "hashTypeId": 17220,
      "description": "PKZIP (Compressed Multi-File)",
      "isSalted": 0,
      "isSlowHash": 0
    },
    {
      "hashTypeId": 17225,
      "description": "PKZIP (Mixed Multi-File)",
      "isSalted": 0,
      "isSlowHash": 0
    },
    {
      "hashTypeId": 17230,
      "description": "PKZIP (Compressed Multi-File Checksum-Only)",
      "isSalted": 0,
      "isSlowHash": 0
    },
    {
      "hashTypeId": 17300,
      "description": "SHA3-224",
      "isSalted": 0,
      "isSlowHash": 0
    },
    {
      "hashTypeId": 17400,
      "description": "SHA3-256",
      "isSalted": 0,
      "isSlowHash": 0
    },
    {
      "hashTypeId": 17500,
      "description": "SHA3-384",
      "isSalted": 0,
      "isSlowHash": 0
    },
    {
      "hashTypeId": 17600,
      "description": "SHA3-512",
      "isSalted": 0,
      "isSlowHash": 0
    },
    {
      "hashTypeId": 17700,
      "description": "Keccak-224",
      "isSalted": 0,
      "isSlowHash": 0
    },
    {
      "hashTypeId": 17800,
      "description": "Keccak-256",
      "isSalted": 0,
      "isSlowHash": 0
    },
    {
      "hashTypeId": 17900,
      "description": "Keccak-384",
      "isSalted": 0,
      "isSlowHash": 0
    },
    {
      "hashTypeId": 18000,
      "description": "Keccak-512",
      "isSalted": 0,
      "isSlowHash": 0
    },
    {
      "hashTypeId": 18100,
      "description": "TOTP (HMAC-SHA1)",
      "isSalted": 1,
      "isSlowHash": 0
    },
    {
      "hashTypeId": 18200,
      "description": "Kerberos 5 AS-REP etype 23",
      "isSalted": 0,
      "isSlowHash": 1
    },
    {
      "hashTypeId": 18300,
      "description": "Apple File System (APFS)",
      "isSalted": 0,
      "isSlowHash": 1
    },
    {
      "hashTypeId": 18400,
      "description": "Open Document Format (ODF) 1.2 (SHA-256, AES)",
      "isSalted": 0,
      "isSlowHash": 1
    },
    {
      "hashTypeId": 18500,
      "description": "sha1(md5(md5($pass)))",
      "isSalted": 0,
      "isSlowHash": 0
    },
    {
      "hashTypeId": 18600,
      "description": "Open Document Format (ODF) 1.1 (SHA-1, Blowfish)",
      "isSalted": 0,
      "isSlowHash": 1
    },
    {
      "hashTypeId": 18700,
      "description": "Java Object hashCode()",
      "isSalted": 0,
      "isSlowHash": 1
    },
    {
      "hashTypeId": 18800,
      "description": "Blockchain, My Wallet, Second Password (SHA256)",
      "isSalted": 0,
      "isSlowHash": 1
    },
    {
      "hashTypeId": 18900,
      "description": "Android Backup",
      "isSalted": 0,
      "isSlowHash": 1
    },
    {
      "hashTypeId": 19000,
      "description": "QNX /etc/shadow (MD5)",
      "isSalted": 0,
      "isSlowHash": 1
    },
    {
      "hashTypeId": 19100,
      "description": "QNX /etc/shadow (SHA256)",
      "isSalted": 0,
      "isSlowHash": 1
    },
    {
      "hashTypeId": 19200,
      "description": "QNX /etc/shadow (SHA512)",
      "isSalted": 0,
      "isSlowHash": 1
    },
    {
      "hashTypeId": 19300,
      "description": "sha1($salt1.$pass.$salt2)",
      "isSalted": 0,
      "isSlowHash": 0
    },
    {
      "hashTypeId": 19500,
      "description": "Ruby on Rails Restful-Authentication",
      "isSalted": 0,
      "isSlowHash": 0
    },
    {
      "hashTypeId": 19600,
      "description": "Kerberos 5 TGS-REP etype 17 (AES128-CTS-HMAC-SHA1-96)",
      "isSalted": 0,
      "isSlowHash": 1
    },
    {
      "hashTypeId": 19700,
      "description": "Kerberos 5 TGS-REP etype 18 (AES256-CTS-HMAC-SHA1-96)",
      "isSalted": 0,
      "isSlowHash": 1
    },
    {
      "hashTypeId": 19800,
      "description": "Kerberos 5, etype 17, Pre-Auth",
      "isSalted": 0,
      "isSlowHash": 1
    },
    {
      "hashTypeId": 19900,
      "description": "Kerberos 5, etype 18, Pre-Auth",
      "isSalted": 0,
      "isSlowHash": 1
    },
    {
      "hashTypeId": 20011,
      "description": "DiskCryptor SHA512 + XTS 512 bit (AES) / DiskCryptor SHA512 + XTS 512 bit (Twofish) / DiskCryptor SHA512 + XTS 512 bit (Serpent)",
      "isSalted": 0,
      "isSlowHash": 1
    },
    {
      "hashTypeId": 20012,
      "description": "DiskCryptor SHA512 + XTS 1024 bit (AES-Twofish) / DiskCryptor SHA512 + XTS 1024 bit (Twofish-Serpent) / DiskCryptor SHA512 + XTS 1024 bit (Serpent-AES)",
      "isSalted": 0,
      "isSlowHash": 1
    },
    {
      "hashTypeId": 20013,
      "description": "DiskCryptor SHA512 + XTS 1536 bit (AES-Twofish-Serpent)",
      "isSalted": 0,
      "isSlowHash": 1
    },
    {
      "hashTypeId": 20200,
      "description": "Python passlib pbkdf2-sha512",
      "isSalted": 0,
      "isSlowHash": 1
    },
    {
      "hashTypeId": 20300,
      "description": "Python passlib pbkdf2-sha256",
      "isSalted": 0,
      "isSlowHash": 1
    },
    {
      "hashTypeId": 20400,
      "description": "Python passlib pbkdf2-sha1",
      "isSalted": 0,
      "isSlowHash": 0
    },
    {
      "hashTypeId": 20500,
      "description": "PKZIP Master Key",
      "isSalted": 0,
      "isSlowHash": 0
    },
    {
      "hashTypeId": 20510,
      "description": "PKZIP Master Key (6 byte optimization)",
      "isSalted": 0,
      "isSlowHash": 0
    },
    {
      "hashTypeId": 20600,
      "description": "Oracle Transportation Management (SHA256)",
      "isSalted": 0,
      "isSlowHash": 0
    },
    {
      "hashTypeId": 20710,
      "description": "sha256(sha256($pass).$salt)",
      "isSalted": 1,
      "isSlowHash": 0
    },
    {
      "hashTypeId": 20711,
      "description": "AuthMe sha256",
      "isSalted": 0,
      "isSlowHash": 0
    },
    {
      "hashTypeId": 20800,
      "description": "sha256(md5($pass))",
      "isSalted": 0,
      "isSlowHash": 0
    },
    {
      "hashTypeId": 20900,
      "description": "md5(sha1($pass).md5($pass).sha1($pass))",
      "isSalted": 0,
      "isSlowHash": 0
    },
    {
      "hashTypeId": 21000,
      "description": "BitShares v0.x - sha512(sha512_bin(pass))",
      "isSalted": 0,
      "isSlowHash": 0
    },
    {
      "hashTypeId": 21100,
      "description": "sha1(md5($pass.$salt))",
      "isSalted": 1,
      "isSlowHash": 0
    },
    {
      "hashTypeId": 21200,
      "description": "md5(sha1($salt).md5($pass))",
      "isSalted": 1,
      "isSlowHash": 0
    },
    {
      "hashTypeId": 21300,
      "description": "md5($salt.sha1($salt.$pass))",
      "isSalted": 1,
      "isSlowHash": 0
    },
    {
      "hashTypeId": 21400,
      "description": "sha256(sha256_bin(pass))",
      "isSalted": 0,
      "isSlowHash": 0
    },
    {
      "hashTypeId": 21500,
      "description": "SolarWinds Orion",
      "isSalted": 0,
      "isSlowHash": 0
    },
    {
      "hashTypeId": 21501,
      "description": "SolarWinds Orion v2",
      "isSalted": 0,
      "isSlowHash": 0
    },
    {
      "hashTypeId": 21600,
      "description": "Web2py pbkdf2-sha512",
      "isSalted": 0,
      "isSlowHash": 0
    },
    {
      "hashTypeId": 21700,
      "description": "Electrum Wallet (Salt-Type 4)",
      "isSalted": 0,
      "isSlowHash": 0
    },
    {
      "hashTypeId": 21800,
      "description": "Electrum Wallet (Salt-Type 5)",
      "isSalted": 0,
      "isSlowHash": 0
    },
    {
      "hashTypeId": 22000,
      "description": "WPA-PBKDF2-PMKID+EAPOL",
      "isSalted": 0,
      "isSlowHash": 0
    },
    {
      "hashTypeId": 22001,
      "description": "WPA-PMK-PMKID+EAPOL",
      "isSalted": 0,
      "isSlowHash": 0
    },
    {
      "hashTypeId": 22100,
      "description": "BitLocker",
      "isSalted": 0,
      "isSlowHash": 0
    },
    {
      "hashTypeId": 22200,
      "description": "Citrix NetScaler (SHA512)",
      "isSalted": 0,
      "isSlowHash": 0
    },
    {
      "hashTypeId": 22300,
      "description": "sha256($salt.$pass.$salt)",
      "isSalted": 1,
      "isSlowHash": 0
    },
    {
      "hashTypeId": 22301,
      "description": "Telegram client app passcode (SHA256)",
      "isSalted": 0,
      "isSlowHash": 0
    },
    {
      "hashTypeId": 22400,
      "description": "AES Crypt (SHA256)",
      "isSalted": 0,
      "isSlowHash": 0
    },
    {
      "hashTypeId": 22500,
      "description": "MultiBit Classic .key (MD5)",
      "isSalted": 0,
      "isSlowHash": 0
    },
    {
      "hashTypeId": 22600,
      "description": "Telegram Desktop App Passcode (PBKDF2-HMAC-SHA1)",
      "isSalted": 0,
      "isSlowHash": 0
    },
    {
      "hashTypeId": 22700,
      "description": "MultiBit HD (scrypt)",
      "isSalted": 0,
      "isSlowHash": 1
    },
    {
      "hashTypeId": 22911,
      "description": "RSA/DSA/EC/OPENSSH Private Keys ($0$)",
      "isSalted": 0,
      "isSlowHash": 0
    },
    {
      "hashTypeId": 22921,
      "description": "RSA/DSA/EC/OPENSSH Private Keys ($6$)",
      "isSalted": 0,
      "isSlowHash": 0
    },
    {
      "hashTypeId": 22931,
      "description": "RSA/DSA/EC/OPENSSH Private Keys ($1, $3$)",
      "isSalted": 0,
      "isSlowHash": 0
    },
    {
      "hashTypeId": 22941,
      "description": "RSA/DSA/EC/OPENSSH Private Keys ($4$)",
      "isSalted": 0,
      "isSlowHash": 0
    },
    {
      "hashTypeId": 22951,
      "description": "RSA/DSA/EC/OPENSSH Private Keys ($5$)",
      "isSalted": 0,
      "isSlowHash": 0
    },
    {
      "hashTypeId": 23001,
      "description": "SecureZIP AES-128",
      "isSalted": 0,
      "isSlowHash": 0
    },
    {
      "hashTypeId": 23002,
      "description": "SecureZIP AES-192",
      "isSalted": 0,
      "isSlowHash": 0
    },
    {
      "hashTypeId": 23003,
      "description": "SecureZIP AES-256",
      "isSalted": 0,
      "isSlowHash": 0
    },
    {
      "hashTypeId": 23100,
      "description": "Apple Keychain",
      "isSalted": 0,
      "isSlowHash": 1
    },
    {
      "hashTypeId": 23200,
      "description": "XMPP SCRAM PBKDF2-SHA1",
      "isSalted": 0,
      "isSlowHash": 0
    },
    {
      "hashTypeId": 23300,
      "description": "Apple iWork",
      "isSalted": 0,
      "isSlowHash": 0
    },
    {
      "hashTypeId": 23400,
      "description": "Bitwarden",
      "isSalted": 0,
      "isSlowHash": 0
    },
    {
      "hashTypeId": 23500,
      "description": "AxCrypt 2 AES-128",
      "isSalted": 0,
      "isSlowHash": 0
    },
    {
      "hashTypeId": 23600,
      "description": "AxCrypt 2 AES-256",
      "isSalted": 0,
      "isSlowHash": 0
    },
    {
      "hashTypeId": 23700,
      "description": "RAR3-p (Uncompressed)",
      "isSalted": 0,
      "isSlowHash": 0
    },
    {
      "hashTypeId": 23800,
      "description": "RAR3-p (Compressed)",
      "isSalted": 0,
      "isSlowHash": 0
    },
    {
      "hashTypeId": 23900,
      "description": "BestCrypt v3 Volume Encryption",
      "isSalted": 0,
      "isSlowHash": 0
    },
    {
      "hashTypeId": 24100,
      "description": "MongoDB ServerKey SCRAM-SHA-1",
      "isSalted": 0,
      "isSlowHash": 0
    },
    {
      "hashTypeId": 24200,
      "description": "MongoDB ServerKey SCRAM-SHA-256",
      "isSalted": 0,
      "isSlowHash": 0
    },
    {
      "hashTypeId": 24300,
      "description": "sha1($salt.sha1($pass.$salt))",
      "isSalted": 1,
      "isSlowHash": 0
    },
    {
      "hashTypeId": 24410,
      "description": "PKCS#8 Private Keys (PBKDF2-HMAC-SHA1 + 3DES/AES)",
      "isSalted": 0,
      "isSlowHash": 0
    },
    {
      "hashTypeId": 24420,
      "description": "PKCS#8 Private Keys (PBKDF2-HMAC-SHA256 + 3DES/AES)",
      "isSalted": 0,
      "isSlowHash": 0
    },
    {
      "hashTypeId": 24500,
      "description": "Telegram Desktop >= v2.1.14 (PBKDF2-HMAC-SHA512)",
      "isSalted": 0,
      "isSlowHash": 0
    },
    {
      "hashTypeId": 24600,
      "description": "SQLCipher",
      "isSalted": 0,
      "isSlowHash": 0
    },
    {
      "hashTypeId": 24700,
      "description": "Stuffit5",
      "isSalted": 0,
      "isSlowHash": 0
    },
    {
      "hashTypeId": 24800,
      "description": "Umbraco HMAC-SHA1",
      "isSalted": 0,
      "isSlowHash": 0
    },
    {
      "hashTypeId": 24900,
      "description": "Dahua Authentication MD5",
      "isSalted": 0,
      "isSlowHash": 0
    },
    {
      "hashTypeId": 25300,
      "description": "MS Office 2016 - SheetProtection",
      "isSalted": 0,
      "isSlowHash": 0
    },
    {
      "hashTypeId": 25400,
      "description": "PDF 1.4 - 1.6 (Acrobat 5 - 8) - edit password",
      "isSalted": 0,
      "isSlowHash": 0
    },
    {
      "hashTypeId": 25500,
      "description": "Stargazer Stellar Wallet XLM",
      "isSalted": 0,
      "isSlowHash": 0
    },
    {
      "hashTypeId": 25900,
      "description": "KNX IP Secure - Device Authentication Code",
      "isSalted": 0,
      "isSlowHash": 0
    },
    {
      "hashTypeId": 26000,
      "description": "Mozilla key3.db",
      "isSalted": 0,
      "isSlowHash": 0
    },
    {
      "hashTypeId": 26100,
      "description": "Mozilla key4.db",
      "isSalted": 0,
      "isSlowHash": 0
    },
    {
      "hashTypeId": 99999,
      "description": "Plaintext",
      "isSalted": 0,
      "isSlowHash": 0
    }
  ]
